<?xml version="1.0" encoding="UTF-8"?>
<svg width="20px" height="20px" viewBox="0 0 20 20" version="1.1" xmlns="http://www.w3.org/2000/svg" xmlns:xlink="http://www.w3.org/1999/xlink">
    <!-- Generator: Sketch 51.3 (57544) - http://www.bohemiancoding.com/sketch -->
    <title>svg (20)</title>
    <desc>Created with Sketch.</desc>
    <defs></defs>
    <g id="Symbols" stroke="none" stroke-width="1" fill="none" fill-rule="evenodd">
        <g id="Icon/20*20/Content" fill="#FFFFFF" fill-rule="nonzero">
            <g id="svg-(20)">
                <path d="M0.0138671875,0 L0.0138671875,2.84511719 L1.43652344,2.84511719 L1.43652344,1.42265625 L2.85917969,1.42265625 L2.85917969,0 L0.0138671875,0 Z M5.70429687,1.42108547e-14 L5.70429687,1.42265625 L8.57734375,1.42265625 L8.57734375,1.42108547e-14 L5.70429687,1.42108547e-14 Z M11.4226562,1.42108547e-14 L11.4226562,1.42265625 L14.2957031,1.42265625 L14.2957031,1.42108547e-14 L11.4226562,1.42108547e-14 Z M17.1408203,1.42108547e-14 L17.1408203,1.42265625 L18.5634766,1.42265625 L18.5634766,2.84511719 L19.9861328,2.84511719 L19.9861328,1.42108547e-14 L17.1408203,1.42108547e-14 Z M5.70429687,4.26777344 C5.31380208,4.26777344 4.97903646,4.40729167 4.7,4.68632813 C4.42109375,4.96536458 4.28164062,5.309375 4.28164062,5.71835938 C4.28164062,6.10885417 4.42109375,6.44355469 4.7,6.72246094 C4.97903646,7.00136719 5.31380208,7.14082031 5.70429687,7.14082031 L11.4226562,7.14082031 C11.813151,7.14082031 12.1478516,7.00136719 12.4267578,6.72246094 C12.7056641,6.44355469 12.8451172,6.10885417 12.8451172,5.71835938 C12.8451172,5.30924479 12.7056641,4.96523438 12.4267578,4.68632813 C12.1478516,4.40729167 11.813151,4.26777344 11.4226562,4.26777344 L5.70429687,4.26777344 Z M0.0138671875,5.71835937 L0.0138671875,8.56347656 L1.43652344,8.56347656 L1.43652344,5.71835937 L0.0138671875,5.71835937 Z M18.5634766,5.71835937 L18.5634766,8.56347656 L19.9861328,8.56347656 L19.9861328,5.71835937 L18.5634766,5.71835937 Z M5.70429688,8.56347656 C5.31380208,8.56347656 4.97903646,8.70292969 4.7,8.98183594 C4.42109375,9.26074219 4.28164062,9.59550781 4.28164062,9.98613281 C4.28164062,10.3766276 4.42109375,10.7113281 4.7,10.9902344 C4.97903646,11.2691406 5.31380208,11.4085937 5.70429688,11.4085937 L14.2957031,11.4085937 C14.6861979,11.4085937 15.0208984,11.2691406 15.2998047,10.9902344 C15.5787109,10.7113281 15.7181641,10.3766276 15.7181641,9.98613281 C15.7181641,9.59550781 15.5787109,9.26074219 15.2998047,8.98183594 C15.0207682,8.70292969 14.6860677,8.56347656 14.2957031,8.56347656 L5.70429688,8.56347656 Z M0.0138671875,11.4085937 L0.0138671875,14.2816406 L1.43652344,14.2816406 L1.43652344,11.4085937 L0.0138671875,11.4085937 Z M18.5634766,11.4085937 L18.5634766,14.2816406 L19.9861328,14.2816406 L19.9861328,11.4085937 L18.5634766,11.4085937 Z M5.70429687,12.8591797 C5.31380208,12.8591797 4.97903646,12.9986328 4.7,13.2775391 C4.42109375,13.5564453 4.28164062,13.8911458 4.28164062,14.2816406 C4.28164062,14.6722656 4.42109375,15.0070312 4.7,15.2859375 C4.97903646,15.5648437 5.31380208,15.7042969 5.70429687,15.7042969 L8.57734375,15.7042969 C8.96783854,15.7042969 9.30253906,15.5648437 9.58144531,15.2859375 C9.86048177,15.0070312 10,14.6722656 10,14.2816406 C10,13.8911458 9.86048177,13.5564453 9.58144531,13.2775391 C9.30240885,12.9986328 8.96770833,12.8591797 8.57734375,12.8591797 L5.70429687,12.8591797 Z M0.0138671875,17.1269531 L0.0138671875,20 L2.85917969,20 L2.85917969,18.5496094 L1.43652344,18.5496094 L1.43652344,17.1269531 L0.0138671875,17.1269531 Z M18.5634766,17.1269531 L18.5634766,18.5496094 L17.1408203,18.5496094 L17.1408203,20 L19.9861328,20 L19.9861328,17.1269531 L18.5634766,17.1269531 Z M5.70429687,18.5496094 L5.70429687,20 L8.57734375,20 L8.57734375,18.5496094 L5.70429687,18.5496094 Z M11.4226562,18.5496094 L11.4226562,20 L14.2957031,20 L14.2957031,18.5496094 L11.4226562,18.5496094 Z" id="Shape"></path>
            </g>
        </g>
    </g>
</svg>