<?xml version="1.0" encoding="UTF-8"?>
<svg width="15px" height="20px" viewBox="0 0 15 20" version="1.1" xmlns="http://www.w3.org/2000/svg" xmlns:xlink="http://www.w3.org/1999/xlink">
    <!-- Generator: Sketch 51.2 (57519) - http://www.bohemiancoding.com/sketch -->
    <title>Group 3</title>
    <desc>Created with Sketch.</desc>
    <defs>
        <polygon id="path-1" points="4.65116279e-05 0 14.3505426 0 14.3505426 19.8451938 4.65116279e-05 19.8451938"></polygon>
    </defs>
    <g id="Symbols" stroke="none" stroke-width="1" fill="none" fill-rule="evenodd">
        <g id="Icon/20*20/Position" transform="translate(-3.000000, 0.000000)">
            <g id="Group-3" transform="translate(3.000000, 0.000000)">
                <mask id="mask-2" fill="white">
                    <use xlink:href="#path-1"></use>
                </mask>
                <g id="Clip-2"></g>
                <path d="M14.3504341,7.17527132 C14.3504341,8.14488372 14.054155,9.24379845 13.4614419,10.4720155 C12.8687287,11.7002326 12.173845,12.9177519 11.3766357,14.1244186 C10.5794264,15.3309302 9.78221705,16.4515504 8.98516279,17.4856589 C8.18795349,18.5199225 7.58454264,19.3065891 7.17524031,19.8451938 C6.76578295,19.3067442 6.16237209,18.5200775 5.36531783,17.4856589 C4.56795349,16.4515504 3.77074419,15.3310853 2.97368992,14.1244186 C2.17648062,12.9177519 1.4815969,11.7002326 0.888883721,10.4720155 C0.296325581,9.24379845 4.65116279e-05,8.14488372 4.65116279e-05,7.17527132 C4.65116279e-05,6.20565891 0.204697674,5.28984496 0.614155039,4.4279845 C1.0236124,3.56612403 1.56764341,2.80658915 2.2464031,2.14937984 C2.92516279,1.49217054 3.69539535,0.969534884 4.55741085,0.581782946 C5.41927132,0.193875969 6.29182946,-7.75193798e-05 7.17539535,-7.75193798e-05 C8.0588062,-7.75193798e-05 8.93151938,0.193875969 9.79337984,0.581782946 C10.6552403,0.969534884 11.4256279,1.49217054 12.1045426,2.14937984 C12.7831473,2.80658915 13.3271783,3.56612403 13.7366357,4.4279845 C14.145938,5.28984496 14.3505891,6.20565891 14.3505891,7.17527132 L14.3504341,7.17527132 Z" id="Fill-1" fill="#FFFFFF" mask="url(#mask-2)"></path>
            </g>
        </g>
    </g>
</svg>