<?xml version="1.0" encoding="UTF-8"?>
<svg width="17px" height="20px" viewBox="0 0 17 20" version="1.1" xmlns="http://www.w3.org/2000/svg" xmlns:xlink="http://www.w3.org/1999/xlink">
    <!-- Generator: Sketch 51.3 (57544) - http://www.bohemiancoding.com/sketch -->
    <title>Fill 1</title>
    <desc>Created with Sketch.</desc>
    <defs></defs>
    <g id="Symbols" stroke="none" stroke-width="1" fill="none" fill-rule="evenodd">
        <g id="Icon/20*20/Tree" transform="translate(-2.000000, 0.000000)" fill="#FFFFFF">
            <polygon id="Fill-1" points="10.3385937 0 2 10 6.169375 10 2 15.0160938 8.67734375 15.0160938 8.67734375 20 12 20 12 15.0160938 18.6771875 15.0160938 14.5079687 10 18.6771875 10"></polygon>
        </g>
    </g>
</svg>