<?xml version="1.0" encoding="UTF-8"?>
<svg width="16px" height="14px" viewBox="0 0 16 14" version="1.1" xmlns="http://www.w3.org/2000/svg" xmlns:xlink="http://www.w3.org/1999/xlink">
    <!-- Generator: Sketch 51.2 (57519) - http://www.bohemiancoding.com/sketch -->
    <title>more-icon</title>
    <desc>Created with Sketch.</desc>
    <defs></defs>
    <g id="Phase1" stroke="none" stroke-width="1" fill="none" fill-rule="evenodd">
        <g id="G01-Documentation" transform="translate(-147.000000, -1489.000000)" fill="#FFFFFF">
            <g id="others-section" transform="translate(135.000000, 1480.000000)">
                <g id="more-title">
                    <g id="more-icon">
                        <path d="M27.8571616,15.2571343 L27.8571616,16.9714221 C27.8571616,17.4446369 27.3772503,17.828566 26.7857317,17.828566 L22.1428691,17.828566 L22.1428691,21.5428561 C22.1428691,22.016071 21.6629578,22.4 21.0714392,22.4 L18.9285795,22.4 C18.337061,22.4 17.8571497,22.016071 17.8571497,21.5428561 L17.8571497,17.828566 L13.214287,17.828566 C12.6227684,17.828566 12.1428571,17.4446369 12.1428571,16.9714221 L12.1428571,15.2571343 C12.1428571,14.7839195 12.6227684,14.3999905 13.214287,14.3999905 L17.8571497,14.3999905 L17.8571497,10.6857003 C17.8571497,10.2124855 18.337061,9.82855644 18.9285795,9.82855644 L21.0714392,9.82855644 C21.6629578,9.82855644 22.1428691,10.2124855 22.1428691,10.6857003 L22.1428691,14.3999905 L26.7857317,14.3999905 C27.3772503,14.3999905 27.8571616,14.7839195 27.8571616,15.2571343 Z"></path>
                    </g>
                </g>
            </g>
        </g>
    </g>
</svg>