<?xml version="1.0" encoding="UTF-8"?>
<svg width="166px" height="166px" viewBox="0 0 166 166" version="1.1" xmlns="http://www.w3.org/2000/svg" xmlns:xlink="http://www.w3.org/1999/xlink">
    <!-- Generator: Sketch 49.3 (51167) - http://www.bohemiancoding.com/sketch -->
    <title>delivery</title>
    <desc>Created with Sketch.</desc>
    <defs>
        <circle id="path-1" cx="83" cy="83" r="83"></circle>
    </defs>
    <g id="Symbols" stroke="none" stroke-width="1" fill="none" fill-rule="evenodd">
        <g id="icon-content-center" transform="translate(-56.000000, 0.000000)">
            <g id="delivery" transform="translate(56.000000, 0.000000)">
                <mask id="mask-2" fill="white">
                    <use xlink:href="#path-1"></use>
                </mask>
                <use id="Mask" fill="#D8D8D8" fill-rule="nonzero" xlink:href="#path-1"></use>
                <g mask="url(#mask-2)" fill-rule="nonzero">
                    <circle id="XMLID_67_" fill="#F67E64" cx="83" cy="83" r="83"></circle>
                    <path d="M101.98173,80 L84.0148505,80 C82.3037191,80 81,78.6968641 81,77.1637631 L81,71.8362369 C81,70.2264808 82.3852016,69 84.0148505,69 L101.98173,69 C103.692861,69 104.99658,70.3031359 104.99658,71.8362369 L104.99658,77.1637631 C105.078062,78.7351916 103.692861,80 101.98173,80 Z" id="XMLID_68_" fill="#234561"></path>
                    <path d="M106.919629,147.751354 L106.919629,147 L102.097367,147 C102.016996,148.581798 101.092729,150.084507 100.731059,151.587216 C98.1190006,160.208017 90.9257929,165.269772 81.3214542,165.269772 L78.5486535,164.597508 C76.33845,164.597508 74.5702872,166.179307 72.4806403,165.586132 C71.6367445,165.269772 70.5517355,166.574756 71.1947038,167.167931 C73.0432376,168.986999 74.8917714,170.489707 77.50383,171.399242 L78.3477259,171.161972 C79.593477,171.557421 84.174626,173.13922 90.5641233,171.596966 C91.086535,171.438787 91.6491323,171.913326 91.6491323,172.427411 L91.6491323,219.169556 C91.6491323,219.60455 92.0509874,220 92.4930281,220 L106.156104,220 C106.598145,220 107,219.60455 107,219.169556 L107,147.751354 L106.919629,147.751354 Z" id="XMLID_69_" fill="#E6E6E6"></path>
                    <path d="M99.4623116,147 L71.6030151,147 L63,147 L63,147.74973 L63,158.601081 L63,220 L79.120603,220 L79.120603,171.267568 C76.7487437,170.438919 74.5778894,169.097297 72.8090452,167.44 C72.0452261,166.69027 72.8090452,165.467027 73.8140704,165.782703 C75.6633166,166.295676 77.6331658,166.611351 79.7236181,166.611351 L81.8140704,166.611351 C91.4221106,166.611351 99.5427136,160.376757 102.155779,151.774595 C102.59799,150.275135 102.919598,148.775676 103,147.118378 L99.4623116,147.118378 L99.4623116,147 Z" id="XMLID_70_" fill="#F8F8F7"></path>
                    <circle id="XMLID_71_" fill="#E6E6E6" cx="115" cy="98" r="7"></circle>
                    <circle id="XMLID_72_" fill="#E6E6E6" cx="51" cy="98" r="7"></circle>
                    <path d="M109.339697,94 L58.5594032,94 C51.8777855,94 48.2225477,97.1974005 46.4931878,103.592201 L39.2220156,130.029245 C37.4140485,136.424045 47.0434387,142 53.7643599,142 L114.252652,142 C120.934269,142 130.524356,136.424045 128.794996,130.029245 L121.523824,103.592201 C119.715857,97.1974005 116.099922,94 109.339697,94 Z" id="XMLID_73_" fill="#E6E6E6"></path>
                    <path d="M101.023238,89 L64.9765509,89 C58.3445846,89 53,94.3446034 53,100.976593 L53,137.023407 C53,143.655397 58.3445846,149 64.9765509,149 L101.023238,149 C107.655205,149 112.999789,143.655397 112.999789,137.023407 L112.999789,100.976593 C113.038801,94.3446034 107.655205,89 101.023238,89 Z" id="XMLID_74_" fill="#F8F8F7"></path>
                    <ellipse id="XMLID_75_" fill="#E1E2E2" cx="84.5" cy="88" rx="18.5" ry="7"></ellipse>
                    <circle id="XMLID_76_" fill="#F8F8F7" cx="83" cy="59" r="30"></circle>
                    <circle id="XMLID_77_" fill="#3C4E5A" cx="83" cy="59" r="24"></circle>
                    <path d="M98.8369354,46.1674679 C102.577108,50.6844348 103.106021,55.4235476 99.8569824,56.6823744 C96.6079439,57.9412012 90.9787958,55.3494989 87.1630646,50.8325321 C83.4228923,46.3155652 82.8939791,41.5764524 86.1430176,40.3176256 C89.3920561,39.0587988 94.9834247,41.6505011 98.8369354,46.1674679 Z" id="XMLID_78_" fill="#808C93"></path>
                    <circle id="XMLID_79_" fill="#F8F8F7" cx="91.5" cy="65.5" r="2.5"></circle>
                    <circle id="XMLID_80_" fill="#F8F8F7" cx="76.5" cy="65.5" r="2.5"></circle>
                    <polygon id="XMLID_2_" fill="#CE8834" points="83.609375 88.0787992 83.609375 88 59 102.932458 59 129.881801 83.609375 118.298311 83.609375 117.549719 109 130 109 101.908068"></polygon>
                    <polygon id="XMLID_83_" fill="#F9AC35" points="84 144 84 115.701576 59 102 59 128.585728"></polygon>
                    <polygon id="XMLID_84_" fill="#E29B3D" points="84 144 110 128.720615 110 101 84 115.735081"></polygon>
                    <polygon id="XMLID_85_" fill="#FFBC6C" points="69.0754717 107.075269 69.0754717 118.403226 72.8490566 121 72.8490566 109.333333 73 109.295699 69 107"></polygon>
                    <polygon id="XMLID_86_" fill="#F9AC35" points="94.4692202 93 69 106.76659 73.3638851 109 98 94.8306636"></polygon>
                    <path d="M97.2817955,125 L103.0798,125 C103.0798,125 110,125 110,131.807359 C110,135.192641 110,142 110,142 L95,142 L95,127.244589 C95,127.318182 95,125 97.2817955,125 Z" id="XMLID_87_" fill="#E6E6E6"></path>
                    <path d="M72,127.244589 C72,127.244589 72,125 69.7182045,125 L63.9201995,125 C63.9201995,125 57,125 57,131.807359 C57,135.192641 57,142 57,142 L72,142 L72,127.244589 Z" id="XMLID_88_" fill="#E6E6E6"></path>
                </g>
            </g>
        </g>
    </g>
</svg>